    1  passwd
    2  echo "arch">>/etc/hostname
    3  ln -s /usr/share/zoneinfo/Asia/Taipei /etc/localtime
    4  vi /etc/locale.gen 
    5  locale-gen 
    6  export LANGE=en_US.UTF-8
    7  hwclock --systohc --utc
    8  vi /etc/mkinitcpio.conf 
    9  mkinitcpio -p linux
   10  pacman -S grub-efi-x86_64
   11  grub-install --target=x86_64-efi --efi-directory=/boot/efi --bootloader-id=arch_grub --recheck
   12  vi /etc/default/grub 
   13  vi /etc/default/grub 
   14  grub-install --target=x86_64-efi --efi-directory=/boot/efi --bootloader-id=arch_grub --recheck
   15  #echo "GRUB_ENABLE_CRYPTODISK=1">>/etc/default/grub 
   16  cp /etc/default/grub /etc/default/grub.backup
   17  echo "GRUB_ENABLE_CRYPTODISK=1">>/etc/default/grub 
   18  grub-install --target=x86_64-efi --efi-directory=/boot/efi --bootloader-id=arch_grub --recheck
   19  cat /etc/default/grub
   20  grub-install --target=x86_64-efi --efi-directory=/boot/efi --bootloader-id=arch_grub --recheck
   21  df -h
   22  vi /etc/default/grub
   23  grub-install --target=x86_64-efi --efi-directory=/boot/efi --bootloader-id=arch_grub --recheck
   24  mount -t efivarfs efivarfs /sys/firmware/efi/efivars/
   25  df -h
   26  grub-install --target=x86_64-efi --efi-directory=/boot/efi --bootloader-id=arch_grub --recheck
   27  modprobe efivarfs
   28  grub-install --target=x86_64-efi --efi-directory=/boot/efi --bootloader-id=arch_grub --recheck
   29  ls /sys/firmware/efi/efivars/
   30  grub-install --target=x86_64-efi --efi-directory=/boot/efi --bootloader-id=arch_grub --recheck
   31  echo $PATH
   32  parted /dev/sda print
   33  exit
   34  grub-install --target=x86_64-efi --efi-directory=/dev/sda1 --bootloader-id=arch_grub --recheck
   35  df
   36  df -h
   37  umount /boot/
   38  umount /boot/efi/
   39  umount /boot
   40  mount /dev/sda1 /boot/efi/
   41  grub-install --target=x86_64-efi --efi-directory=/dev/sda1 --bootloader-id=arch_grub --recheck
   42  grub-install --target=x86_64-efi --efi-directory=/boot/efi/ --bootloader-id=arch_grub --recheck
   43  lvm
   44  grub-install --target=x86_64-efi --efi-directory=/boot/efi/ --bootloader-id=arch_grub --recheck
   45  efi
   46  exit
   47  modprobe efivarfs
   48  efibootmgr
   49  pacman -S efibootmgr
   50  efibootmgr 
   51  grub-install --target=x86_64-efi --efi-directory=/boot/efi/ --bootloader-id=arch_grub --recheck
   52  cat /etc/hostname 
   53  env
   54  grub-mkconfig -o /boot/grub/grub.cfg
   55  grub-install --target=x86_64-efi --efi-directory=/boot/efi/ --bootloader-id=arch_grub --recheck
   56  ls -l /boot/efi/EFI/arch_grub/grubx64.efi 
   57  pacman -Syy
   58  vi /etc/pacman.d/mirrorlist 
   59  pacman -Syu
   60  pacman -S alsa-utils
   61  alsamixer 
   62  pacman -Rs alas-utils
   63  pacman -Rs alsa-utils
   64  cat /etc/shadow
   65  cat /etc/passwd
   66  cat /etc/group
   67  useradd -G wheel -s /bin/bash -m super
   68  su super
   69  passwd super
   70  ls
   71  vi /etc/default/grub
   72  grub-mkconfig -o /boot/grub/grub.cfg
   73  grub-install --target=x86_64-efi --efi-directory=/boot/efi/ --bootloader-id=arch_grub --recheck
   74  grub-mkconfig -o /boot/grub/grub.cfg
   75  exit
   76  grub-install --target=x86_64-efi --efi-directory=/boot/efi/ --bootloader-id=arch_grub --recheck
   77  grub-install /dev/sda
   78  grub-install --target=x86_64-efi --efi-directory=/boot/efi/ --bootloader-id=arch_grub --recheck
   79  grub-mkconfig -o /boot/grub/grub.cfg
   80  exit
   81  dir
   82  visudo 
   83  exit
   84  l
   85  ls
   86  lspci | grep VGA
   87  pacman -Ss xf86-video-intel
   88  pacman -Syu xf86-video-intel
   89  wifi-menu 
   90  wifi-menu 
   91  pacman -Syu xf86-video-intel
   92  pacman -S xorg-server xorg-server-utils xorg-xinit
   93  startx
   94  pacman -S ttf-dejavu wqy-zenhei
   95  pacman -S slim
   96  systemctl enable slim.service
   97  cp /etc/skel/.xinitrc ~
   98  echo "exec $1">>~/.xinitrc 
   99  cat .xinitrc 
  100  vi .xinitrc 
  101  exit
  102  cd /var/lib/
  103  ls
  104  ls -lah
  105  ls -lah /etc/modprobe.d/
  106  dmesg | grep audio
  107  dmesg | grep AUDI
  108  dmesg | grep audio
  109  echo "options snd-hda-intel model=ALC283" >> /etc/modprobe.d/alsa
  110  update-moules
  111  depmod -a
  112  reboot
  113   
  114  wifi-menu 
  115  ~alsa
  116  alsaloop 
  117  alsamixer 
  118  alsactl restore
  119  systemctl status alsa-restore -l
  120  alsactl restore
  121  systemctl restart alsa-restore -l
  122  systemctl restart alsa-restore 
  123  systemctl stop alsa-restore 
  124  systemctl start alsa-restore 
  125  systemctl status alsa-restore -l
  126  ls -al /usr/lib/systemd/system/basic.target.wants
  127  systemctl start alsa-store.service
  128  reboot
  129  wifi-menu 
  130  alsactl restore
  131  exit
  132  wifi-menu 
  133  ls
  134  ls /home/super/
  135  cd /home/super/Downloads/
  136  ls
  137  tar -xjf LinuxPkg_5.18rc8.tar.bz2 
  138  ls -lah
  139  cd Rt-Linux-HDaudio-5.18/
  140  ls
  141  tar -xjf alsa-driver-RTv5.18rc8.tar.bz2 
  142  cd alsa-driver-RTv5.18
  143  ls
  144  ls -lah
  145  cd alsa/
  146  ls
  147  ./configure --with-cards=i
  148  ./configure --with-cards=had-intel
  149  make
  150  make install
  151  cd ..
  152  cd ..
  153  rm -rf alsa-driver-RTv5.18
  154  ls
  155  tar -xjf alsa-driver-RTv5.18rc8.tar.bz2 
  156  ls -lah
  157  cd alsa-driver-RTv5.18
  158  ls
  159  cd alsa/
  160  ls
  161  ./configure --with-cards=hda-intel
  162  make
  163  ./configure --with-cards=hda-intel
  164  ./configure --with-cards=hda-intel --with-kernel=/lib/modules/3.18.6-1-ARCH/build/
  165  ./configure --with-cards=hda-intel --with-kernel=/lib/modules/3.18.6-1-ARCH/build/vmlinux 
  166  cd /lib/modules/3.18.6-1-ARCH/build/vmlinux 
  167  cd /lib/modules/3.18.6-1-ARCH/build
  168  ls
  169  ls -lah
  170  pacman -Syu linux-api-headers
  171  cd /home/super/Downloads/
  172  ls
  173  cd Rt-Linux-HDaudio-5.18/
  174  ls
  175  cd alsa-driver-RTv5.18
  176  cd alsa/
  177  ls
  178  ./configure --with-cards=hda-intel
  179  ./configure --with-cards=hda-intel --with-sequencer=yes
  180  ./configure --with-cards=oxygen --with-sequencer=yes
  181  pacman -Rs linux-api-headers
  182  pacman -Rs linux-api-headers
  183  pacman -R linux-api-headers
  184  reboot
  185  emacs -nw
  186  wifi-menu 
  187  exit
  188  history | grep grub
  189  grub-install --target=x86_64-efi --efi-directory=/boot/efi/ --bootloader-id=arch_grub --recheck
  190  grub-mkconfig -o /boot/grub/grub.cfg
  191  exit
  192  wifi-menu 
  193  wifi-menu 
  194  exit
  195  alsamixer 
  196  emacs -nw /etc/asound.conf
  197  ls
  198  cd /
  199  pacman -Syu alsa
  200  alsamixer 
  201  aplay -l | awk -F \: '/,/{print $2}' | awk '{print $1}' | uniq
  202  lsmod | grep '^snd' | column -t
  203  ls -l /dev/snd/
  204  reboot
  205  ls
  206  mount /dev/sdb1 /mnt/
  207  cd m
  208  cd /mnt/
  209  ls
  210  cp noseeing.gtab ~/.gcin
  211  cd ~
  212  ls
  213  ls -lah
  214  cd .gcin/
  215  file .gcin
  216  cat .gcin
  217  ls
  218  ls -lah
  219  rm -rf .gcin
  220  ls
  221  rm -rf .gcin
  222  ls -lah
  223  cd /mnt/
  224  exit
  225  ls
  226  wifi-menu 
  227  exit
  228  df -h
  229  umount /home/super/.cache/
  230  umount /home/super/.cache/
  231  rm -rf /home/super/.cache/
  232  exit
  233  cd /home/super/Downloads/
  234  ls -l
  235  rm -rf Rt-Linux-HDaudio-5.18/
  236  rm -rf LinuxPkg_5.18rc8.tar.bz2 
  237  ls
  238  exit
  239  touch /etc/systemd/system/vmware.service
  240  cd /etc/systemd/system/vmware.service
  241  cd /etc/systemd/system
  242  ls
  243  echo "[Unit]
  244  Description=VMware daemon
  245  Requires=vmware-USBArbitrator.service
  246  After=vmware-USBArbitrator.service
  247  [Service]
  248  ExecStart=/etc/init.d/vmware start
  249  ExecStop=/etc/init.d/vmware stop
  250  PIDFile=/var/lock/subsys/vmware
  251  TimeoutSec=0
  252  RemainAfterExit=yes
  253  " >> vmware.service
  254  ls
  255  cat vmware.service 
  256  echo "[Install]
  257  WantedBy=multi-user.target
  258  " >> vmware.service
  259  cat vmware.service 
  260  touch vmware-USBArbitrator.service
  261  ls -lah
  262  ls -l
  263  echo "[Unit]
  264  Description=VMware USB Arbitrator
  265  [Service]
  266  ExecStart=/etc/init.d/vmware-USBArbitrator start
  267  ExecStop=/etc/init.d/vmware-USBArbitrator stop
  268  RemainAfterExit=yes
  269  [Install]
  270  WantedBy=multi-user.target
  271  " >/etc/systemd/system/vmware-USBArbitrator.service
  272  cat vmware-USBArbitrator.service 
  273  systemctl enable vmware
  274  systemctl enable vmware-USBArbitrator
  275  vmware
  276  pacman -Syu linux-headers
  277  sudo vmware-modconfig --console --install-all
  278  vmware
  279  exit
  280  pac
  281  pacman -Syu linux-headers
  282  uname -a
  283  reboot
  284  history | grep ln
  285  ip route print
  286  ip route show
  287  ssh root@140.131.115.40
  288  pacman -Syu openssh
  289  ssh 140.131.115.40
  290  ssh super@140.131.115.40
  291  ping 140.131.115.40
  292  ping 8.8.8.8
  293  ping 140.131.114.234
  294  ping 140.131.115.202
  295  ping 140.131.115.40
  296  pacman -Qi linux-headers
  297  pacman -Qi linux
  298  pacman -Ss linux-headers
  299  pacman -Syu linux-headers 3.18.6-1
  300  pacman -Syu linux-headers3.18.6-1
  301  pacman -Ss emacs
  302  pacman -Syu linux-headers\ 3.18.6-1
  303  ping 8.8.8.8
  304  pacman -Syu linux-headers\ 3.18.6-1
  305  pacman -Syu linux-header
  306  pacman -Syu linux-headers
  307  vmware
  308  exit
  309  cat /tmp/vmware-root/vmware-apploader-1474.log 
  310  cat /tmp/vmware-root/vmware-apploader-1474.log 
  311  vmware
  312  env
  313  exit
  314  vmware --display=:0.0
  315  exit
  316  vmware
  317  history >> /home/super/root.history 
